Leaflet_tester
…
This works ok, but the zooming experience is very unpleasent. With the clustered option, the map is zoomed and centered as you click through the clusters. There is also a very clear indication (the number in the cluster) that there are mutiple data points in the dot. Here, more datapoints make a darker circle, but this isn’t crystal clear.

So, I’m going to go with the clustered version. I can have additional information in layers. There are 70+ different cemeteries, so I don’t want to have 70+ layers.

I could use era or surname as a layer option. There are 65 different surnames. That still feels like too much.

tombstones_geo %>% group_by(Surname) %>% count(sort = TRUE)

Simple feature collection with 65 features and 2 fields
Geometry type: GEOMETRY
Dimension:     XY
Bounding box:  xmin: -89.2775 ymin: 35.97833 xmax: -73.48583 ymax: 44.75056
Geodetic CRS:  WGS 84
# A tibble: 65 × 3
   Surname      n                                                       geometry
 * <chr>    <int>                                               <MULTIPOINT [°]>
 1 Sinks       21 ((-86.86278 36.35861), (-89.2775 38.7825), (-88.87806 38.1088…
 2 Woolard     16 ((-88.69444 38.10389), (-88.69444 38.10361), (-88.69417 38.10…
 3 Dorris      13 ((-86.89139 36.56778), (-86.89139 36.56806), (-86.76889 36.69…
 4 Hess         9 ((-89.14639 37.6075), (-89.14694 37.6075), (-89.14778 37.6077…
 5 Veach        9 ((-86.90611 37.73194), (-86.90639 37.73194), (-86.90556 37.73…
 6 Follis       7 ((-89.18167 38.06056), (-89.18222 38.06056), (-89.18194 38.06…
 7 Jones        7 ((-89.0175 38.05972), (-89.0175 38.06028), (-89.02333 38.0594…
 8 Rex          7 ((-89.15417 37.95139), (-89.15417 37.95111), (-88.94861 37.96…
 9 Anderson     6 ((-88.7725 37.99333), (-88.69583 38.10333), (-88.69639 38.103…
10 Bundy        5 ((-88.68278 38.10972), (-88.70222 38.10917), (-88.865 37.9888…
# ℹ 55 more rows
…
